^D:\MY DOCS\MY DOCUMENTS\VISUAL STUDIO 2010\PROJECTS\WINDOWSFORMSAPPLICATION1\WINDOWSFORMSAPPLICATION1\PROPERTIES\RESOURCES.RESX
C:\WINDOWS\ASSEMBLY\PUBPOL38.DAT
C:\WINDOWS\MICROSOFT.NET\ASSEMBLY\GAC_MSIL\MICROSOFT.BUILD.TASKS.V4.0\V4.0_4.0.0.0__B03F5F7F11D50A3A\MICROSOFT.BUILD.TASKS.V4.0.DLL
D:\MY DOCS\MY DOCUMENTS\VISUAL STUDIO 2010\PROJECTS\WINDOWSFORMSAPPLICATION1\WINDOWSFORMSAPPLICATION1\RESOURCES\PLAYBUTTON.PNG
D:\MY DOCS\MY DOCUMENTS\VISUAL STUDIO 2010\PROJECTS\WINDOWSFORMSAPPLICATION1\WINDOWSFORMSAPPLICATION1\RESOURCES\PLAYBUTTON_50.PNG
^D:\MY DOCS\MY DOCUMENTS\VISUAL STUDIO 2010\PROJECTS\WINDOWSFORMSAPPLICATION1\WINDOWSFORMSAPPLICATION1\FORM1.RESX
^D:\MY DOCS\MY DOCUMENTS\VISUAL STUDIO 2010\PROJECTS\WINDOWSFORMSAPPLICATION1\WINDOWSFORMSAPPLICATION1\INTERFACE.RESX
^D:\C#\YOTUBE\V1\WINDOWSFORMSAPPLICATION1\WINDOWSFORMSAPPLICATION1\PROPERTIES\RESOURCES.RESX
C:\WINDOWS\ASSEMBLY\PUBPOL38.DAT
C:\WINDOWS\MICROSOFT.NET\ASSEMBLY\GAC_MSIL\MICROSOFT.BUILD.TASKS.V4.0\V4.0_4.0.0.0__B03F5F7F11D50A3A\MICROSOFT.BUILD.TASKS.V4.0.DLL
D:\C#\YOTUBE\V1\WINDOWSFORMSAPPLICATION1\WINDOWSFORMSAPPLICATION1\RESOURCES\PLAYBUTTON.PNG
D:\C#\YOTUBE\V1\WINDOWSFORMSAPPLICATION1\WINDOWSFORMSAPPLICATION1\RESOURCES\PLAYBUTTON_50.PNG
^D:\C#\YOTUBE\V1\WINDOWSFORMSAPPLICATION1\WINDOWSFORMSAPPLICATION1\INTERFACE.RESX
^D:\CSHARP\YOTUBE\V1\WINDOWSFORMSAPPLICATION1\WINDOWSFORMSAPPLICATION1\PROPERTIES\RESOURCES.RESX
C:\WINDOWS\ASSEMBLY\PUBPOL38.DAT
C:\WINDOWS\MICROSOFT.NET\ASSEMBLY\GAC_MSIL\MICROSOFT.BUILD.TASKS.V4.0\V4.0_4.0.0.0__B03F5F7F11D50A3A\MICROSOFT.BUILD.TASKS.V4.0.DLL
D:\CSHARP\YOTUBE\V1\WINDOWSFORMSAPPLICATION1\WINDOWSFORMSAPPLICATION1\RESOURCES\PLAYBUTTON.PNG
D:\CSHARP\YOTUBE\V1\WINDOWSFORMSAPPLICATION1\WINDOWSFORMSAPPLICATION1\RESOURCES\PLAYBUTTON_50.PNG
^D:\CSHARP\YOTUBE\V1\WINDOWSFORMSAPPLICATION1\WINDOWSFORMSAPPLICATION1\INTERFACE.RESX
